{
    "count": 113116,
    "next": "https://www.muckrock.com/api_v1/communication/?page=2",
    "previous": null,
    "results": [
                {
                "id": 11344,
                "from": "Big Daddy Motors",
                "communication": "Dear Consumer, Dealerships in your area have just reduced prices on all Cars, Trucks, and SUVs! Click here to find the lowest prices on any make and model: http://www.leadclicks.us/interest/288Px86rV13009B72drAB-972-FmOlWOnVn0hWMxmjMx0Mjhdf2/15 This is the biggest automotive clearance of the year. View sale prices at no-obligation: http://www.leadclicks.us/interest/288Px86rV13009B72drAB-972-FmOlWOnVn0hWMxmjMx0Mjhdf2/15 --- Your Auto Price Finder Team http://www.leadclicks.us/interest/288Px86rV13009B72drAB-972-FmOlWOnVn0hWMxmjMx0Mjhdf2/15 If you no longer wish to receive these emails, please go to this link: http://www.leadclicks.us/24/y/k/8nc8jY613019B72drAB-972-FmOlWOnVn0hWMxmjMx0Mjh95e Auto-Price-Finder Attn: 230 1770 Massachusetts Avenue. #291 Cambridge MA 02140"
                },
                {
                "id": 117590,
                "from": "Hunter, Carol J CIV NSWC Crane, Office of Counsel",
                "communication": "Invoices for N00164-04-D-6642"
                },
                {
                "id": 123123,
                "from": "Cheap Cool Air",
                "communication": "Keep your home cooler this summer with a new air conditioner. Locate experienced local air conditioner installers now: http://www.hvactime.us/Deals-on-Air-Conditioning-in-Your-City/7ceBW86131aTo1A12d_-9722_AFmOlWOnVn0hWMxmjMx0Mjh276 BENEFITS OF A NEW AIR CONDITIONER: - Reduced Utility Bills - Increased Performance - Improved Comfort - Quieter When Running - Better Efficiency - Lower (or No) Repair Costs Our contractors use only quality brands. Click Here to Find an Affordable Air Conditioner for Your Home: http://www.hvactime.us/Deals-on-Air-Conditioning-in-Your-City/7ceBW86131aTo1A12d_-9722_AFmOlWOnVn0hWMxmjMx0Mjh276 If you are not interested, please let us know by clicking here: http://www.hvactime.us/Deals-on-Quality-Heating--AC-Systems-in-Your-Area/5b2t86T131b1A12d_-9722_AFmOlWOnVn0hWMxmjMx0Mjhb3e Questions? Comments? Contact the HVAC_Deals team at: 804 Congress Avenue || Suite 400 || Austin, TX 78701"
                },
                {
                "id": 44872,
                "from": "Miller, Kimberly A CIV USARMY ARDEC (US)",
                "communication": "Classification: UNCLASSIFIED Caveats: NONE Mr. Slaughter, The Army Contracting Command has referred your request for copies of all contracts and OTAs with Cipher Systems, LLC issued by ACC-NJ from 1 Jan 05 to 29 Aug 13 to this office for processing. This request has been assigned #14-3 and is being processed. "
                },
                {
                "id": 44874,
                "from": "Kleppe, Maj. David A.",
                "communication": "Regarding your information request, the North Dakota Highway Patrol has not and does not plan to use aerial drones, remotely piloted vehicles (RPVs), remotely piloted aircraft (RPAs), unmanned aerials (UAs), unmanned aerial vehicles (UAVs), and/or unmanned aerial systems (UASs). There are no documents related to your request. "
                },
                {
                "id": 44876,
                "from": "Becker, Tamara",
                "communication": "Your request for information has been forwarded to the Research & Development Unit."
                },
                {
                "id": 66566,
                "from": "Cool Deals",
                "communication": "Keep your home cooler this summer with a new air conditioner. Locate experienced local air conditioner installers now: http://www.leadhere.biz/Deals-on-Quality-Heating--AC-Systems/8828B6F28h5Hk9B72drAB-972-FmOlWOnVn0hWMxmjMx0Mjhd5c BENEFITS OF A NEW AIR CONDITIONER: - Reduced Utility Bills - Increased Performance - Improved Comfort - Quieter When Running - Better Efficiency - Lower (or No) Repair Costs Our contractors use only quality brands. Click Here to Find an Affordable Air Conditioner for Your Home: http://www.leadhere.biz/Deals-on-Quality-Heating--AC-Systems/8828B6F28h5Hk9B72drAB-972-FmOlWOnVn0hWMxmjMx0Mjhd5c If you are not interested, please let us know by clicking here: http://www.leadhere.biz/Deals-on-Quality-Heating--AC-Systems-in-Your-City/bca86Ci2P8k69B72drAB-972-FmOlWOnVn0hWMxmjMx0Mjh2cf Questions? Comments? Contact the HVAC_Deals team at: 804 Congress Avenue || Suite 400 || Austin, TX 78701"
                },
                {
                "id": 557878,
                "from": "Brandon Jones - SHERIFFX",
                "communication": "The Maricopa County Sheriff’s Office has received your request for public records and is processing your request. All requests are processed in the order in which they are received, and no requests are prioritized by deadline date. Please understand that on average it takes us 4 to 8 weeks to process, redact, and prepare for release any records that are found in response to requests. Some requests, especially for new reports will take longer than 8 weeks. You will be notified once records are made available for you to pick up or if no records are found. Additionally, MCSO does not have any current systems that maintain records in digital form, therefore any records produced will be provided in physical form only. Thank you Maricopa County Sheriff’s Office"
                },
                {
                "id": 12321312,
                "from": "Jacob Laffler",
                "communication": "Dear Decision maker , We know you are interested in receiving amazing intelligence . This is a one time  mailing there is no need to request removal if you  won't want any more . This mail is being sent in compliance  with Senate bill 1623 ; Title 3 , Section 307 . This  is different than anything else you've seen . Why work  for somebody else when you can become rich as few as  82 WEEKS . Have you ever noticed how long the line-ups  are at bank machines and society seems to be moving  faster and faster . Well, now is your chance to capitalize  on this ! WE will help YOU deliver goods right to the  customer's doorstep and turn your business into an  E-BUSINESS . You are guaranteed to succeed because  we take all the risk ! But don't believe us ! Mr Simpson  of Maryland tried us and says I was skeptical but  it worked for me. We assure you that we operate within  all applicable laws ! We implore you - act now ! Sign  up a friend and you get half off . Thanks . "
                },
                {
                "id": 44867,
                "from": "Heather Benjamin",
                "communication": "Hello Shawn, Unfortunately, we are not able to accept CORA requests via email, for accurate tracking purposes. Here is our website on the process to submit a CORA to our agency: http://sheriff.mesacounty.us/news/template.aspx?id=3127 If you have any questions, please don't hesitate to contact me."
                },
                {
                "id": 666,
                "from": "Sheriff-Rpts Sheriff-Rpts",
                "communication": "Larimer County Sheriff's Office has no records of this type as we do not have drones. In the future, when requesting records from our office, please complete the appropriate request form. A copy of the form is attached and is also available on our web site at larimersheriff.org Thanks- Lorraine Spindler Records Manager"
                },
                {
                "id": 44864,
                "from": "Dulacki, Mary J. - MOS",
                "communication": "Dear Mr. Musgrave: As I indicated in the attached response from July of this year, The Denver Police Department has no records responsive to your request. The Denver Police Department does not utilize drones and has no polices related to their use. Mary Dulacki | Records Coordinator Department of Safety | City and County of Denver 720.913.6262 Phone mary.dulacki@denvergov.org This e-mail and any attachments thereto are intended only for use by the addressee(s) named herein and may contain legally privileged or confidential information. If you are not the intended recipient of this e-mail, you are hereby notified that any dissemination, distribution or copying of this e-mail and any attachments thereto is strictly prohibited. If you have received this e-mail in error, please notify me immediately at 720-913-6262 and permanently delete the original and destroy any copies or printouts. Thank you. October 15, 2013 Denver Police Department Police Administration Building 1331 Cherokee Street, Room 420 Denver, CO 80204 Phone: (720) 913-6755 To Whom It May Concern: Pursuant to the Colorado Open Records Act, I hereby request the following records: All documents created from January 2005 to the date this request is processed related to the agency's use of aerial drones, remotely piloted vehicles (RPVs), remotely piloted aircraft (RPAs), unmanned aerials (UAs), unmanned aerial vehicles (UAVs), and/or unmanned aerial systems (UASs)(hereinafter “drones”). Please search specifically for the below document categories, and respond to each of the categories and items: 1) Acquisition documents: i) requests for proposals (RFPs), proposals/quotes submitted by vendors, contracts, leases, budget requests, project/equipment budgets, cost allocations or reimbursements for the purchase of drone equipment; ii) Grant applications and award letters for drone equipment purchases; iii) Insurance contracts for all drone equipment; iv) Communications (including electronic communications) between the agency head or agency quartermaster (or individual responsible for equipment purchases and maintenance) and drone vendors, manufacturers or retailers; v) Communications (including electronic communications) between the agency head and agency quartermaster (or individual responsible for equipment purchases and maintenance) regarding acquisition, lease or use of drone equipment; vi) Communications (including electronic communications) between the agency head and the governor, mayor and city/town manager regarding the acquisition of drones; vii) Applications (including all components and support documentation) for Certificates of Waiver/Authorization (COA) from the Federal Aviation Administration, as well as COA grant notifications and final agreement; viii) Contracts for services related to drones, such as data storage, data analysis, image storage, image analysis, video storage, video analysis, operation, maintenance; 2) Equipment logs: i) Inventories/logs/lists/databases of all drones owned, leased or operated by or for the agency; ii) Maintenance logs for all drones owned, leased or otherwise operated by or for the agency; 3) Policy documents: i) Policies, guidelines, protocols, manuals and/or instructions on the use/operation of drones and usage of data, images and video obtained from drone flights; ii) Communications from the agency head, quartermaster (or individual responsible for overseeing equipment purchases and maintenance) on approved uses for drones; iii) Memorandums of understanding (MOUs), memorandums of agreement (MOAs) or any other agreements or contracts with other government agencies, private corporations, organizations or individuals to share drone equipment, data, images or video or to operate drones on behalf of the agency; 4) Training documents: i) Curriculum used to train drone operators and observers; ii) Training log for all drone operators and observers; iii) Certifications of training completion for all drone operators and observers; iv) Contracts, purchase orders, budget requests or reimbursement orders for training sessions for all drone operators and observers; 5) Usage documents: i) Flight logs for all drone flights, including training flights; ii) Flight logs transmitted to the Federal Aviation Administration pursuant to Certificate of Waiver/Authorization (COA) requirements; iii) Reprimands relating to drones, including misuse of equipment and failure to properly maintain equipment. I also request that, if appropriate, fees be waived as I believe this request is in the public interest. The requested documents will be made available to the general public free of charge as part of the public information service at MuckRock.com, processed by a representative of the news media/press and is made in the process of news gathering and not for commercial usage. In the event that fees cannot be waived, I would be grateful if you would inform me of the total charges in advance of fulfilling my request. I would prefer the request filled electronically, by e-mail attachment if available or CD-ROM if not. Thank you in advance for your anticipated cooperation in this matter. I look forward to receiving your response to this request within 3 business days, as the statute requires. "
                },
                {
                "id": 21824,
                "from": "HQ-FOIA",
                "communication": "Dear Mr. Morisy, Please see the attached letter regarding your Freedom of Information Act request."
                },
                {
                "id": 15686,
                "from": "Prof. Trecool",
                "communication": "Dear Professional , Your email address has been submitted to us indicating your interest in our newsletter !  If you no longer wish to receive our publications simply  reply with a Subject: of REMOVE and you will immediately  be removed from our mailing list . This mail is being  sent in compliance with Senate bill 2516 ; Title 7  , Section 309 . Do NOT confuse us with Internet scam  artists ! Why work for somebody else when you can become  rich within 10 DAYS ! Have you ever noticed people  are much more likely to BUY with a credit card than  cash and nearly every commercial on television has  a .com on in it . Well, now is your chance to capitalize  on this ! We will help you use credit cards on your  website & decrease perceived waiting time by 180% !  The best thing about our system is that it is absolutely  risk free for you ! But don't believe us ! Mrs Simpson  of Oklahoma tried us and says I was skeptical but  it worked for me . We assure you that we operate within  all applicable laws ! We beseech you - act now . Sign  up a friend and your friend will be rich too ! Thank-you  for your serious consideration of our offer !"
                },
                {
                "id": 21820,
                "from": "FMCSA",
                "communication": "We are currently experiencing a backlog and have not begun processing your request. Requests are processed on a first-in/first-out basis. Please expect about a 8 week turn around. "
                },
                {
                "id": 21815,
                "from": "Sobonya, David P.",
                "communication": "Dear Mr. Stoller, Requests are processed in the order that they are received. The request is waiting to be opened, at which time it will be assigned a FOIPA request number and correspondence will be mailed to you. Upon receipt of the correspondence, you will be able to check the status of your request online at http://www.fbi.gov/foia/. Please remember that the FBI receives a voluminous amount of requests on a daily, weekly, monthly and annual basis. Please contact me if you require further assistance. "
                },
                {
                "id": 21813,
                "from": "Sobonya, David P.",
                "communication": "Dear Mr. Musgrave, Your request was received on 2-13-2013 (actual date request was scanned into the FOIPA Document Processing System) and assigned FOIPA Request Number #1208338-000. The request is presently in Initial Processing, where the assigned analyst is searching for, retrieving and reviewing potentially responsive records. If appropriate, correspondence regarding the request will be forthcoming. Information regarding the Freedom of Information Act/Privacy is available at http://www.fbi.gov/ or http://www.fbi.gov/foia/. If you require additional assistance please contact the Public Information Officer. "
                },
                {
                "id": 556868,
                "from": "Gr8 Deals 4 U",
                "communication": "Complete Our Quick Survey to See if you Qualify for $50 Amazon Gift Card: http://www.leadclicks.us/How-to-get-your-50-Amazon-Gift-Card/864**86M1313111zd2rr12_-AFmOlWOnVn0hWMxmjMx0Mjh761 Giftcard is one of multiple rewards. Click here to start: http://www.leadclicks.us/How-to-get-your-50-Amazon-Gift-Card/864**86M1313111zd2rr12_-AFmOlWOnVn0hWMxmjMx0Mjh761 Amazon is a trademark who is not affiliated with this promotion To stop receiving these notifications, please click here http://www.leadclicks.us/Do-you-want-a-50-Amazon-Gift-Card-/42cr86sn1314111zd2rr12_-AFmOlWOnVn0hWMxmjMx0Mjh851 or write to: PO Box 1960 #22445 Wilmington, DE 19899"
                },
                {
                "id": 21811,
                "from": "Treasury",
                "communication": "Good Morning, Please provide me with your FOIA Tracking number. Thanks!"
                },
                {
                "id": 21810,
                "from": "Zimmerman, Delicia G LCDR OJAG, CODE 13",
                "communication": "Ms. Kang, We are still processing your request. I have located all the responsive documents, most are e-mails. The issue that we are having with the emails is there are a lot of duplicates and I have to manually wade through the email chains to find responsive e-mails. However, my goal is to go through them all this week. Hopefully, we will be able to provide you with an interim release by the end of the week. If I cannot meet that goal, I will send you an e-mail. V/r"
                }]
}